<!-- Generated by IcoMoon.io -->
<svg version="1.1" xmlns="http://www.w3.org/2000/svg" width="32" height="32" viewBox="0 0 32 32">
<title>carrot</title>
<path d="M8.893 10.322c-1.549-0.652-3.171-1.002-4.875-0.871-1.018 0.079-1.026 1.673 0 1.595 1.575-0.121 3.054 0.196 4.479 0.839 0.37-0.659 0.784-1.204 1.123-1.541 0.388-0.388 0.952-0.848 1.608-1.268-0.055-0.114-0.133-0.222-0.252-0.312-2.594-1.96-3.926-4.879-5.205-7.774-0.415-0.939-1.788-0.127-1.377 0.804 0.625 1.416 1.271 2.79 2.041 4.069-0.957-1.087-1.83-2.249-2.613-3.456-0.557-0.859-1.938-0.061-1.377 0.804 1.749 2.698 3.887 5.164 6.449 7.113z"></path>
<path d="M8.967 12.067c-0.527 0.925-0.954 2.086-0.922 3.168 0.027 0.931 0.383 1.708 1.059 2.31l0.784 0.57c0.145-1.669 0.597-3.249 1.803-4.623 0.679-0.774 1.803 0.358 1.127 1.127-1.151 1.31-1.394 2.943-1.409 4.601l1.765 1.283c0.214-1.373 0.693-2.671 1.706-3.823 0.679-0.774 1.803 0.358 1.127 1.128-0.954 1.086-1.283 2.394-1.377 3.754l1.883 1.369c0.263-1.091 0.733-2.125 1.555-3.061 0.68-0.774 1.803 0.358 1.128 1.128-0.764 0.869-1.125 1.881-1.289 2.948l8.754 6.363c0.549 0.488 1.132 0.736 1.704 0.736 0.741 0 1.39-0.416 1.697-1.084 0.355-0.776 0.162-1.681-0.53-2.481l-12.709-18.238c-0.523-0.602-1.219-0.918-2.053-0.918-1.232 0-2.524 0.657-3.488 1.314-0.592 0.404-1.060 0.808-1.312 1.059-0.317 0.318-0.679 0.8-1.005 1.372z"></path>
</svg>
