<!-- Generated by IcoMoon.io -->
<svg version="1.1" xmlns="http://www.w3.org/2000/svg" width="32" height="32" viewBox="0 0 32 32">
<title>sun-filled</title>
<path d="M16 25.186c5.1 0 9.235-4.135 9.235-9.235s-4.135-9.235-9.235-9.235c-5.1 0-9.235 4.135-9.235 9.235s4.135 9.235 9.235 9.235v0zM16 0c-0.464 0-0.84 0.362-0.84 0.832v3.374c0 0.459 0.389 0.832 0.84 0.832 0.464 0 0.84-0.362 0.84-0.832v-3.374c0-0.459-0.389-0.832-0.84-0.832v0zM27.314 4.686c-0.328-0.328-0.85-0.338-1.182-0.005l-2.386 2.385c-0.325 0.325-0.313 0.864 0.005 1.182 0.328 0.328 0.85 0.338 1.182 0.005l2.386-2.386c0.325-0.325 0.313-0.864-0.005-1.182v0zM32 16c0-0.464-0.362-0.84-0.832-0.84h-3.374c-0.459 0-0.832 0.389-0.832 0.84 0 0.464 0.362 0.84 0.832 0.84h3.374c0.459 0 0.832-0.389 0.832-0.84v0zM27.314 27.314c0.328-0.328 0.337-0.85 0.005-1.182l-2.386-2.386c-0.325-0.325-0.863-0.313-1.182 0.005-0.328 0.328-0.337 0.85-0.005 1.182l2.386 2.386c0.325 0.325 0.863 0.313 1.182-0.005v0zM16 32c0.464 0 0.84-0.362 0.84-0.832v-3.374c0-0.459-0.389-0.832-0.84-0.832-0.464 0-0.84 0.362-0.84 0.832v3.374c0 0.459 0.389 0.832 0.84 0.832v0zM4.686 27.314c0.328 0.328 0.85 0.337 1.182 0.005l2.385-2.386c0.325-0.325 0.313-0.863-0.005-1.182-0.328-0.328-0.85-0.337-1.182-0.005l-2.386 2.386c-0.325 0.325-0.313 0.863 0.005 1.182v0zM0 16c0 0.464 0.362 0.84 0.832 0.84h3.374c0.459 0 0.832-0.389 0.832-0.84 0-0.464-0.362-0.84-0.832-0.84h-3.374c-0.459 0-0.832 0.389-0.832 0.84v0zM4.686 4.686c-0.328 0.328-0.338 0.85-0.005 1.182l2.385 2.385c0.325 0.325 0.864 0.313 1.182-0.005 0.328-0.328 0.338-0.85 0.005-1.182l-2.386-2.386c-0.325-0.325-0.864-0.313-1.182 0.005v0z"></path>
</svg>
